{
  "dimension": [
                 {
                   "label": "GHO",
                   "display": "Indicator"
                 },
                 {
                   "label": "PUBLISHSTATE",
                   "display": "PUBLISH STATES"
                 },
                 {
                   "label": "YEAR",
                   "display": "Year"
                 },
                 {
                   "label": "REGION",
                   "display": "WHO region"
                 },
                 {
                   "label": "COUNTRY",
                   "display": "Country"
                 },
                 {
                   "label": "AGEGROUP",
                   "display": "Age Group"
                 },
                 {
                   "label": "SEX",
                   "display": "Sex"
                 }
               ],
    "fact": [
              {
                "dims": {
                          "COUNTRY": "Slovenia",
                          "GHO": "Mean systolic blood pressure (age-standardized estimate)",
                          "YEAR": "2015",
                          "AGEGROUP": "18+  years",
                          "SEX": "Male"
                        },
                "Value": "137.5 [131.2-143.8]"
              },
              {
                "dims": {
                          "COUNTRY": "Slovenia",
                          "GHO": "Mean systolic blood pressure (age-standardized estimate)",
                          "YEAR": "2015",
                          "AGEGROUP": "18+  years",
                          "SEX": "Female"
                        },
                "Value": "127.0 [119.8-134.4]"
              }
      ]
}
